%TF.GenerationSoftware,KiCad,Pcbnew,5.0.2-bee76a0~70~ubuntu16.04.1*%
%TF.CreationDate,2019-11-08T22:08:30+01:00*%
%TF.ProjectId,logrelight_pcb,6c6f6772-656c-4696-9768-745f7063622e,rev?*%
%TF.SameCoordinates,Original*%
%TF.FileFunction,Copper,L1,Top*%
%TF.FilePolarity,Positive*%
%FSLAX46Y46*%
G04 Gerber Fmt 4.6, Leading zero omitted, Abs format (unit mm)*
G04 Created by KiCad (PCBNEW 5.0.2-bee76a0~70~ubuntu16.04.1) date ven. 08 nov. 2019 22:08:30 CET*
%MOMM*%
%LPD*%
G01*
G04 APERTURE LIST*
%ADD10C,0.100000*%
%ADD11C,2.000000*%
%ADD12R,2.000000X2.000000*%
%ADD13C,2.100000*%
%ADD14C,2.200000*%
%ADD15O,2.200000X2.200000*%
%ADD16C,0.250000*%
%ADD17C,2.000000*%
%ADD18C,0.254000*%
G04 APERTURE END LIST*
D10*
G36*
X149647009Y-82191408D02*
X149695545Y-82198607D01*
X149743142Y-82210530D01*
X149789342Y-82227060D01*
X149833698Y-82248039D01*
X149875785Y-82273265D01*
X149915197Y-82302495D01*
X149951553Y-82335447D01*
X149984505Y-82371803D01*
X150013735Y-82411215D01*
X150038961Y-82453302D01*
X150059940Y-82497658D01*
X150076470Y-82543858D01*
X150088393Y-82591455D01*
X150095592Y-82639991D01*
X150098000Y-82689000D01*
X150098000Y-83689000D01*
X150095592Y-83738009D01*
X150088393Y-83786545D01*
X150076470Y-83834142D01*
X150059940Y-83880342D01*
X150038961Y-83924698D01*
X150013735Y-83966785D01*
X149984505Y-84006197D01*
X149951553Y-84042553D01*
X149915197Y-84075505D01*
X149875785Y-84104735D01*
X149833698Y-84129961D01*
X149789342Y-84150940D01*
X149743142Y-84167470D01*
X149695545Y-84179393D01*
X149647009Y-84186592D01*
X149598000Y-84189000D01*
X148598000Y-84189000D01*
X148548991Y-84186592D01*
X148500455Y-84179393D01*
X148452858Y-84167470D01*
X148406658Y-84150940D01*
X148362302Y-84129961D01*
X148320215Y-84104735D01*
X148280803Y-84075505D01*
X148244447Y-84042553D01*
X148211495Y-84006197D01*
X148182265Y-83966785D01*
X148157039Y-83924698D01*
X148136060Y-83880342D01*
X148119530Y-83834142D01*
X148107607Y-83786545D01*
X148100408Y-83738009D01*
X148098000Y-83689000D01*
X148098000Y-82689000D01*
X148100408Y-82639991D01*
X148107607Y-82591455D01*
X148119530Y-82543858D01*
X148136060Y-82497658D01*
X148157039Y-82453302D01*
X148182265Y-82411215D01*
X148211495Y-82371803D01*
X148244447Y-82335447D01*
X148280803Y-82302495D01*
X148320215Y-82273265D01*
X148362302Y-82248039D01*
X148406658Y-82227060D01*
X148452858Y-82210530D01*
X148500455Y-82198607D01*
X148548991Y-82191408D01*
X148598000Y-82189000D01*
X149598000Y-82189000D01*
X149647009Y-82191408D01*
X149647009Y-82191408D01*
G37*
D11*
X149098000Y-83189000D03*
D10*
G36*
X151017009Y-84941408D02*
X151065545Y-84948607D01*
X151113142Y-84960530D01*
X151159342Y-84977060D01*
X151203698Y-84998039D01*
X151245785Y-85023265D01*
X151285197Y-85052495D01*
X151321553Y-85085447D01*
X151354505Y-85121803D01*
X151383735Y-85161215D01*
X151408961Y-85203302D01*
X151429940Y-85247658D01*
X151446470Y-85293858D01*
X151458393Y-85341455D01*
X151465592Y-85389991D01*
X151468000Y-85439000D01*
X151468000Y-86439000D01*
X151465592Y-86488009D01*
X151458393Y-86536545D01*
X151446470Y-86584142D01*
X151429940Y-86630342D01*
X151408961Y-86674698D01*
X151383735Y-86716785D01*
X151354505Y-86756197D01*
X151321553Y-86792553D01*
X151285197Y-86825505D01*
X151245785Y-86854735D01*
X151203698Y-86879961D01*
X151159342Y-86900940D01*
X151113142Y-86917470D01*
X151065545Y-86929393D01*
X151017009Y-86936592D01*
X150968000Y-86939000D01*
X149968000Y-86939000D01*
X149918991Y-86936592D01*
X149870455Y-86929393D01*
X149822858Y-86917470D01*
X149776658Y-86900940D01*
X149732302Y-86879961D01*
X149690215Y-86854735D01*
X149650803Y-86825505D01*
X149614447Y-86792553D01*
X149581495Y-86756197D01*
X149552265Y-86716785D01*
X149527039Y-86674698D01*
X149506060Y-86630342D01*
X149489530Y-86584142D01*
X149477607Y-86536545D01*
X149470408Y-86488009D01*
X149468000Y-86439000D01*
X149468000Y-85439000D01*
X149470408Y-85389991D01*
X149477607Y-85341455D01*
X149489530Y-85293858D01*
X149506060Y-85247658D01*
X149527039Y-85203302D01*
X149552265Y-85161215D01*
X149581495Y-85121803D01*
X149614447Y-85085447D01*
X149650803Y-85052495D01*
X149690215Y-85023265D01*
X149732302Y-84998039D01*
X149776658Y-84977060D01*
X149822858Y-84960530D01*
X149870455Y-84948607D01*
X149918991Y-84941408D01*
X149968000Y-84939000D01*
X150968000Y-84939000D01*
X151017009Y-84941408D01*
X151017009Y-84941408D01*
G37*
D11*
X150468000Y-85939000D03*
D12*
X147728000Y-85939000D03*
X154051000Y-84301000D03*
D13*
X154051000Y-81661000D03*
D12*
X140462000Y-85852000D03*
X140462000Y-82677000D03*
X144145000Y-85852000D03*
D14*
X140462000Y-79375000D03*
D15*
X150622000Y-79375000D03*
D16*
X147193000Y-85852000D02*
X147828000Y-85217000D01*
X147815000Y-85852000D02*
X147828000Y-85839000D01*
D17*
X144145000Y-85852000D02*
X147815000Y-85852000D01*
X149098000Y-80899000D02*
X150622000Y-79375000D01*
X149098000Y-80899000D02*
X149098000Y-83289000D01*
X140462000Y-80789213D02*
X140462000Y-82677000D01*
X140462000Y-79375000D02*
X140462000Y-80789213D01*
D18*
G36*
X149945037Y-77740666D02*
X149371135Y-78124135D01*
X148989562Y-78695199D01*
X148055750Y-79629012D01*
X147919231Y-79720231D01*
X147557864Y-80261056D01*
X147485299Y-80625865D01*
X147430969Y-80899000D01*
X147463000Y-81060030D01*
X147463001Y-82626457D01*
X147450560Y-82689000D01*
X147450560Y-83689000D01*
X147537904Y-84128106D01*
X147597301Y-84217000D01*
X145207541Y-84217000D01*
X145145000Y-84204560D01*
X143145000Y-84204560D01*
X142897235Y-84253843D01*
X142687191Y-84394191D01*
X142546843Y-84604235D01*
X142497560Y-84852000D01*
X142497560Y-85753509D01*
X142477969Y-85852000D01*
X142497560Y-85950491D01*
X142497560Y-86852000D01*
X142546843Y-87099765D01*
X142687191Y-87309809D01*
X142897235Y-87450157D01*
X143145000Y-87499440D01*
X145145000Y-87499440D01*
X145207541Y-87487000D01*
X146405170Y-87487000D01*
X146480235Y-87537157D01*
X146728000Y-87586440D01*
X148728000Y-87586440D01*
X148975765Y-87537157D01*
X149091080Y-87460105D01*
X149108302Y-87477327D01*
X149341691Y-87574000D01*
X150182250Y-87574000D01*
X150341000Y-87415250D01*
X150341000Y-86066000D01*
X150595000Y-86066000D01*
X150595000Y-87415250D01*
X150753750Y-87574000D01*
X151594309Y-87574000D01*
X151827698Y-87477327D01*
X152006327Y-87298699D01*
X152103000Y-87065310D01*
X152103000Y-86224750D01*
X151944250Y-86066000D01*
X150595000Y-86066000D01*
X150341000Y-86066000D01*
X150321000Y-86066000D01*
X150321000Y-85812000D01*
X150341000Y-85812000D01*
X150341000Y-85792000D01*
X150595000Y-85792000D01*
X150595000Y-85812000D01*
X151944250Y-85812000D01*
X152103000Y-85653250D01*
X152103000Y-84812690D01*
X152009413Y-84586750D01*
X152416000Y-84586750D01*
X152416000Y-85427309D01*
X152512673Y-85660698D01*
X152691301Y-85839327D01*
X152924690Y-85936000D01*
X153765250Y-85936000D01*
X153924000Y-85777250D01*
X153924000Y-84428000D01*
X154178000Y-84428000D01*
X154178000Y-85777250D01*
X154336750Y-85936000D01*
X155177310Y-85936000D01*
X155410699Y-85839327D01*
X155589327Y-85660698D01*
X155686000Y-85427309D01*
X155686000Y-84586750D01*
X155527250Y-84428000D01*
X154178000Y-84428000D01*
X153924000Y-84428000D01*
X152574750Y-84428000D01*
X152416000Y-84586750D01*
X152009413Y-84586750D01*
X152006327Y-84579301D01*
X151827698Y-84400673D01*
X151594309Y-84304000D01*
X150753750Y-84304000D01*
X150595002Y-84462748D01*
X150595002Y-84304000D01*
X150540568Y-84304000D01*
X150658096Y-84128106D01*
X150745440Y-83689000D01*
X150745440Y-82689000D01*
X150733000Y-82626460D01*
X150733000Y-81576238D01*
X150983405Y-81325833D01*
X152366000Y-81325833D01*
X152366000Y-81996167D01*
X152622526Y-82615476D01*
X152746754Y-82739704D01*
X152691301Y-82762673D01*
X152512673Y-82941302D01*
X152416000Y-83174691D01*
X152416000Y-84015250D01*
X152574750Y-84174000D01*
X153924000Y-84174000D01*
X153924000Y-84154000D01*
X154178000Y-84154000D01*
X154178000Y-84174000D01*
X155527250Y-84174000D01*
X155686000Y-84015250D01*
X155686000Y-83174691D01*
X155589327Y-82941302D01*
X155410699Y-82762673D01*
X155355246Y-82739704D01*
X155479474Y-82615476D01*
X155736000Y-81996167D01*
X155736000Y-81325833D01*
X155479474Y-80706524D01*
X155005476Y-80232526D01*
X154386167Y-79976000D01*
X153715833Y-79976000D01*
X153096524Y-80232526D01*
X152622526Y-80706524D01*
X152366000Y-81325833D01*
X150983405Y-81325833D01*
X151301801Y-81007438D01*
X151872865Y-80625865D01*
X152256334Y-80051963D01*
X152390990Y-79375000D01*
X152256334Y-78698037D01*
X151872865Y-78124135D01*
X151298963Y-77740666D01*
X151215177Y-77724000D01*
X155829000Y-77724000D01*
X155829000Y-87757000D01*
X138811000Y-87757000D01*
X138811000Y-86137750D01*
X138827000Y-86137750D01*
X138827000Y-86978310D01*
X138923673Y-87211699D01*
X139102302Y-87390327D01*
X139335691Y-87487000D01*
X140176250Y-87487000D01*
X140335000Y-87328250D01*
X140335000Y-85979000D01*
X140589000Y-85979000D01*
X140589000Y-87328250D01*
X140747750Y-87487000D01*
X141588309Y-87487000D01*
X141821698Y-87390327D01*
X142000327Y-87211699D01*
X142097000Y-86978310D01*
X142097000Y-86137750D01*
X141938250Y-85979000D01*
X140589000Y-85979000D01*
X140335000Y-85979000D01*
X138985750Y-85979000D01*
X138827000Y-86137750D01*
X138811000Y-86137750D01*
X138811000Y-79922907D01*
X138827000Y-79961535D01*
X138827000Y-81614457D01*
X138814560Y-81677000D01*
X138814560Y-83677000D01*
X138863843Y-83924765D01*
X139004191Y-84134809D01*
X139206984Y-84270312D01*
X139102302Y-84313673D01*
X138923673Y-84492301D01*
X138827000Y-84725690D01*
X138827000Y-85566250D01*
X138985750Y-85725000D01*
X140335000Y-85725000D01*
X140335000Y-85705000D01*
X140589000Y-85705000D01*
X140589000Y-85725000D01*
X141938250Y-85725000D01*
X142097000Y-85566250D01*
X142097000Y-84725690D01*
X142000327Y-84492301D01*
X141821698Y-84313673D01*
X141717016Y-84270312D01*
X141919809Y-84134809D01*
X142060157Y-83924765D01*
X142109440Y-83677000D01*
X142109440Y-81677000D01*
X142097000Y-81614459D01*
X142097000Y-79961535D01*
X142197000Y-79720113D01*
X142197000Y-79029887D01*
X141932862Y-78392201D01*
X141444799Y-77904138D01*
X141009907Y-77724000D01*
X150028823Y-77724000D01*
X149945037Y-77740666D01*
X149945037Y-77740666D01*
G37*
X149945037Y-77740666D02*
X149371135Y-78124135D01*
X148989562Y-78695199D01*
X148055750Y-79629012D01*
X147919231Y-79720231D01*
X147557864Y-80261056D01*
X147485299Y-80625865D01*
X147430969Y-80899000D01*
X147463000Y-81060030D01*
X147463001Y-82626457D01*
X147450560Y-82689000D01*
X147450560Y-83689000D01*
X147537904Y-84128106D01*
X147597301Y-84217000D01*
X145207541Y-84217000D01*
X145145000Y-84204560D01*
X143145000Y-84204560D01*
X142897235Y-84253843D01*
X142687191Y-84394191D01*
X142546843Y-84604235D01*
X142497560Y-84852000D01*
X142497560Y-85753509D01*
X142477969Y-85852000D01*
X142497560Y-85950491D01*
X142497560Y-86852000D01*
X142546843Y-87099765D01*
X142687191Y-87309809D01*
X142897235Y-87450157D01*
X143145000Y-87499440D01*
X145145000Y-87499440D01*
X145207541Y-87487000D01*
X146405170Y-87487000D01*
X146480235Y-87537157D01*
X146728000Y-87586440D01*
X148728000Y-87586440D01*
X148975765Y-87537157D01*
X149091080Y-87460105D01*
X149108302Y-87477327D01*
X149341691Y-87574000D01*
X150182250Y-87574000D01*
X150341000Y-87415250D01*
X150341000Y-86066000D01*
X150595000Y-86066000D01*
X150595000Y-87415250D01*
X150753750Y-87574000D01*
X151594309Y-87574000D01*
X151827698Y-87477327D01*
X152006327Y-87298699D01*
X152103000Y-87065310D01*
X152103000Y-86224750D01*
X151944250Y-86066000D01*
X150595000Y-86066000D01*
X150341000Y-86066000D01*
X150321000Y-86066000D01*
X150321000Y-85812000D01*
X150341000Y-85812000D01*
X150341000Y-85792000D01*
X150595000Y-85792000D01*
X150595000Y-85812000D01*
X151944250Y-85812000D01*
X152103000Y-85653250D01*
X152103000Y-84812690D01*
X152009413Y-84586750D01*
X152416000Y-84586750D01*
X152416000Y-85427309D01*
X152512673Y-85660698D01*
X152691301Y-85839327D01*
X152924690Y-85936000D01*
X153765250Y-85936000D01*
X153924000Y-85777250D01*
X153924000Y-84428000D01*
X154178000Y-84428000D01*
X154178000Y-85777250D01*
X154336750Y-85936000D01*
X155177310Y-85936000D01*
X155410699Y-85839327D01*
X155589327Y-85660698D01*
X155686000Y-85427309D01*
X155686000Y-84586750D01*
X155527250Y-84428000D01*
X154178000Y-84428000D01*
X153924000Y-84428000D01*
X152574750Y-84428000D01*
X152416000Y-84586750D01*
X152009413Y-84586750D01*
X152006327Y-84579301D01*
X151827698Y-84400673D01*
X151594309Y-84304000D01*
X150753750Y-84304000D01*
X150595002Y-84462748D01*
X150595002Y-84304000D01*
X150540568Y-84304000D01*
X150658096Y-84128106D01*
X150745440Y-83689000D01*
X150745440Y-82689000D01*
X150733000Y-82626460D01*
X150733000Y-81576238D01*
X150983405Y-81325833D01*
X152366000Y-81325833D01*
X152366000Y-81996167D01*
X152622526Y-82615476D01*
X152746754Y-82739704D01*
X152691301Y-82762673D01*
X152512673Y-82941302D01*
X152416000Y-83174691D01*
X152416000Y-84015250D01*
X152574750Y-84174000D01*
X153924000Y-84174000D01*
X153924000Y-84154000D01*
X154178000Y-84154000D01*
X154178000Y-84174000D01*
X155527250Y-84174000D01*
X155686000Y-84015250D01*
X155686000Y-83174691D01*
X155589327Y-82941302D01*
X155410699Y-82762673D01*
X155355246Y-82739704D01*
X155479474Y-82615476D01*
X155736000Y-81996167D01*
X155736000Y-81325833D01*
X155479474Y-80706524D01*
X155005476Y-80232526D01*
X154386167Y-79976000D01*
X153715833Y-79976000D01*
X153096524Y-80232526D01*
X152622526Y-80706524D01*
X152366000Y-81325833D01*
X150983405Y-81325833D01*
X151301801Y-81007438D01*
X151872865Y-80625865D01*
X152256334Y-80051963D01*
X152390990Y-79375000D01*
X152256334Y-78698037D01*
X151872865Y-78124135D01*
X151298963Y-77740666D01*
X151215177Y-77724000D01*
X155829000Y-77724000D01*
X155829000Y-87757000D01*
X138811000Y-87757000D01*
X138811000Y-86137750D01*
X138827000Y-86137750D01*
X138827000Y-86978310D01*
X138923673Y-87211699D01*
X139102302Y-87390327D01*
X139335691Y-87487000D01*
X140176250Y-87487000D01*
X140335000Y-87328250D01*
X140335000Y-85979000D01*
X140589000Y-85979000D01*
X140589000Y-87328250D01*
X140747750Y-87487000D01*
X141588309Y-87487000D01*
X141821698Y-87390327D01*
X142000327Y-87211699D01*
X142097000Y-86978310D01*
X142097000Y-86137750D01*
X141938250Y-85979000D01*
X140589000Y-85979000D01*
X140335000Y-85979000D01*
X138985750Y-85979000D01*
X138827000Y-86137750D01*
X138811000Y-86137750D01*
X138811000Y-79922907D01*
X138827000Y-79961535D01*
X138827000Y-81614457D01*
X138814560Y-81677000D01*
X138814560Y-83677000D01*
X138863843Y-83924765D01*
X139004191Y-84134809D01*
X139206984Y-84270312D01*
X139102302Y-84313673D01*
X138923673Y-84492301D01*
X138827000Y-84725690D01*
X138827000Y-85566250D01*
X138985750Y-85725000D01*
X140335000Y-85725000D01*
X140335000Y-85705000D01*
X140589000Y-85705000D01*
X140589000Y-85725000D01*
X141938250Y-85725000D01*
X142097000Y-85566250D01*
X142097000Y-84725690D01*
X142000327Y-84492301D01*
X141821698Y-84313673D01*
X141717016Y-84270312D01*
X141919809Y-84134809D01*
X142060157Y-83924765D01*
X142109440Y-83677000D01*
X142109440Y-81677000D01*
X142097000Y-81614459D01*
X142097000Y-79961535D01*
X142197000Y-79720113D01*
X142197000Y-79029887D01*
X141932862Y-78392201D01*
X141444799Y-77904138D01*
X141009907Y-77724000D01*
X150028823Y-77724000D01*
X149945037Y-77740666D01*
M02*
